module gitlab.com/ptflp/orm-test

go 1.19

require (
	github.com/Masterminds/squirrel v1.5.4
	github.com/go-sql-driver/mysql v1.7.1
	github.com/google/uuid v1.3.0
	github.com/jmoiron/sqlx v1.3.5
	github.com/lib/pq v1.10.9
	github.com/mattn/go-sqlite3 v1.14.6
	github.com/ptflp/godecoder v0.0.1
	github.com/valyala/quicktemplate v1.7.0
	github.com/volatiletech/null/v8 v8.1.2
	gitlab.com/golight/dao v1.0.3
	gitlab.com/golight/scanner v1.0.6
	go.uber.org/zap v1.26.0
	golang.org/x/sync v0.3.0
)

require (
	github.com/friendsofgo/errors v0.9.2 // indirect
	github.com/gofrs/uuid v3.2.0+incompatible // indirect
	github.com/json-iterator/go v1.1.12 // indirect
	github.com/lann/builder v0.0.0-20180802200727-47ae307949d0 // indirect
	github.com/lann/ps v0.0.0-20150810152359-62de8c46ede0 // indirect
	github.com/modern-go/concurrent v0.0.0-20180228061459-e0a39a4cb421 // indirect
	github.com/modern-go/reflect2 v1.0.2 // indirect
	github.com/stretchr/testify v1.8.4 // indirect
	github.com/valyala/bytebufferpool v1.0.0 // indirect
	github.com/volatiletech/inflect v0.0.1 // indirect
	github.com/volatiletech/randomize v0.0.1 // indirect
	github.com/volatiletech/strmangle v0.0.1 // indirect
	gitlab.com/golight/entity v1.0.0 // indirect
	go.uber.org/multierr v1.10.0 // indirect
	golang.org/x/xerrors v0.0.0-20200804184101-5ec99f83aff1 // indirect
)
